Get Started
…
## See spec(...) for full column specifications.

organs

## # A tibble: 238 x 21
##    country  year donors   pop pop.dens   gdp gdp.lag health health.lag pubhealth
##    <chr>   <dbl>  <dbl> <dbl>    <dbl> <dbl>   <dbl>  <dbl>      <dbl>     <dbl>
##  1 Austra    NA  NA    17065    0.220 16774   16591   1300       1224       4.8
##  2 Austra  1991  12.1  17284    0.223 17171   16774   1379       1300       5.4
##  3 Austra  1992  12.4  17495    0.226 17914   17171   1455       1379       5.4
##  4 Austra  1993  12.5  17667    0.228 18883   17914   1540       1455       5.4
##  5 Austra  1994  10.2  17855    0.231 19849   18883   1626       1540       5.4
##  6 Austra  1995  10.2  18072    0.233 21079   19849   1737       1626       5.5
##  7 Austra  1996  10.6  18311    0.237 21923   21079   1846       1737       5.6
##  8 Austra  1997  10.3  18518    0.239 22961   21923   1948       1846       5.7
##  9 Austra  1998  10.5  18711    0.242 24148   22961   2077       1948       5.9
## 10 Austra  1999   8.67 18926    0.244 25445   24148   2231       2077       6.1
## #  with 228 more rows, and 11 more variables: roads <dbl>, cerebvas <dbl>,
## #   assault <dbl>, external <dbl>, txp.pop <dbl>, world <chr>, opt <chr>,
## #   consent.law <chr>, consent.practice <chr>, consistent <chr>, ccode <chr>

Make your first figure

gapminder

## # A tibble: 1,704 x 6
##    country     continent  year lifeExp      pop gdpPercap
##    <fct>       <fct>     <int>   <dbl>    <int>     <dbl>
##  1 Afghanistan Asia       1952    28.8  8425333      779.
##  2 Afghanistan Asia       1957    30.3  9240934      821.
##  3 Afghanistan Asia       1962    32.0 10267083      853.
##  4 Afghanistan Asia       1967    34.0 11537966      836.
##  5 Afghanistan Asia       1972    36.1 13079460      740.
##  6 Afghanistan Asia       1977    38.4 14880372      786.
##  7 Afghanistan Asia       1982    39.9 12881816      978.
##  8 Afghanistan Asia       1987    40.8 13867957      852.
##  9 Afghanistan Asia       1992    41.7 16317921      649.
## 10 Afghanistan Asia       1997    41.8 22227415      635.
## #  with 1,694 more rows
…
